{
  "Planned Effort": [
    {
      "Start Date": "2021-10-01",
      "End Date": "2022-01-31",
      "Daily Hours": 1
    },
    {
      "Start Date": "2022-02-01",
      "End Date": "2022-04-30",
      "Daily Hours": 3
    },
    {
      "Start Date": "2022-05-01",
      "End Date": "2022-05-31",
      "Daily Hours": 0
    }
  ]
}
