Running SLURM prolog script on gold52.cluster.local
===============================================================================
Job started on Thu Nov  4 01:37:29 GMT 2021
Job ID          : 662753
Job name        : run.sh
WorkDir         : /mainfs/lyceum/jej1g19/part-iii-project/Experimental
Command         : /mainfs/lyceum/jej1g19/part-iii-project/Experimental Research/Basic TensorFlow Model/run.sh
Partition       : serial
Num hosts       : 1
Num cores       : 1
Num of tasks    : 1
Hosts allocated : gold52
Job Output Follows ...
===============================================================================
Python 3.6.4
2021-11-04 02:09:42.740423: W tensorflow/stream_executor/platform/default/dso_loader.cc:64] Could not load dynamic library 'libcudart.so.11.0'; dlerror: libcudart.so.11.0: cannot open shared object file: No such file or directory; LD_LIBRARY_PATH: /local/software/python/3.6.4/lib/python3.6:/local/software/python/3.6.4/lib:/local/software/slurm/default/lib::
2021-11-04 02:09:42.741953: I tensorflow/stream_executor/cuda/cudart_stub.cc:29] Ignore above cudart dlerror if you do not have a GPU set up on your machine.
2.6.1
2021-11-04 02:46:59.390470: W tensorflow/stream_executor/platform/default/dso_loader.cc:64] Could not load dynamic library 'libcudart.so.11.0'; dlerror: libcudart.so.11.0: cannot open shared object file: No such file or directory; LD_LIBRARY_PATH: /local/software/python/3.6.4/lib/python3.6:/local/software/python/3.6.4/lib:/local/software/slurm/default/lib::
2021-11-04 02:46:59.390618: I tensorflow/stream_executor/cuda/cudart_stub.cc:29] Ignore above cudart dlerror if you do not have a GPU set up on your machine.
2021-11-04 02:47:25.098048: W tensorflow/stream_executor/platform/default/dso_loader.cc:64] Could not load dynamic library 'libcuda.so.1'; dlerror: libcuda.so.1: cannot open shared object file: No such file or directory; LD_LIBRARY_PATH: /local/software/python/3.6.4/lib/python3.6:/local/software/python/3.6.4/lib:/local/software/slurm/default/lib::
2021-11-04 02:47:25.098191: W tensorflow/stream_executor/cuda/cuda_driver.cc:269] failed call to cuInit: UNKNOWN ERROR (303)
2021-11-04 02:47:25.098250: I tensorflow/stream_executor/cuda/cuda_diagnostics.cc:156] kernel driver does not appear to be running on this host (gold52.cluster.local): /proc/driver/nvidia/version does not exist
2021-11-04 02:47:25.099893: I tensorflow/core/platform/cpu_feature_guard.cc:142] This TensorFlow binary is optimized with oneAPI Deep Neural Network Library (oneDNN) to use the following CPU instructions in performance-critical operations:  AVX2 AVX512F FMA
To enable them in other operations, rebuild TensorFlow with the appropriate compiler flags.
2021-11-04 02:47:26.176205: I tensorflow/compiler/mlir/mlir_graph_optimization_pass.cc:185] None of the MLIR Optimization Passes are enabled (registered 2)
==============================================================================
Running epilogue script on gold52.

Submit time  : 2021-11-04T01:37:18
Start time   : 2021-11-04T01:37:19
End time     : 2021-11-04T02:52:53
Elapsed time : 01:15:34 (Timelimit=02:00:00)

Job ID: 662753
Cluster: i5
User/Group: jej1g19/fp
State: COMPLETED (exit code 0)
Cores: 1
CPU Utilized: 00:05:22
CPU Efficiency: 7.10% of 01:15:34 core-walltime
Job Wall-clock time: 01:15:34
Memory Utilized: 806.10 MB
Memory Efficiency: 6.82% of 11.54 GB

